SVM,KER:	linear	C=	1,0.5666131621187802
SVM,KER:	linear	C=	2,0.5443881960735895
SVM,KER:	linear	C=	3,0.5443881960735895
SVM,KER:	linear	C=	4,0.5555555555555556
SVM,KER:	linear	C=	5,0.5443881960735895
SVM,KER:	linear	C=	6,0.5555555555555556
SVM,KER:	linear	C=	7,0.5555555555555556
SVM,KER:	linear	C=	8,0.5555555555555556
SVM,KER:	linear	C=	9,0.5443881960735895
SVM,KER:	poly	C=	1,0.6052136859255546
SVM,KER:	poly	C=	2,0.6192135390741662
SVM,KER:	poly	C=	3,0.6416127426580389
SVM,KER:	poly	C=	4,0.6399999999999999
SVM,KER:	poly	C=	5,0.6503321218197768
SVM,KER:	poly	C=	6,0.6625000000000001
SVM,KER:	poly	C=	7,0.6625000000000001
SVM,KER:	poly	C=	8,0.6520763187429854
SVM,KER:	poly	C=	9,0.6399999999999999
SVM,KER:	rbf	C=	1,0.55
SVM,KER:	rbf	C=	2,0.5398428731762065
SVM,KER:	rbf	C=	3,0.5769421078673924
SVM,KER:	rbf	C=	4,0.5884315906562847
SVM,KER:	rbf	C=	5,0.5777777777777778
SVM,KER:	rbf	C=	6,0.5769421078673924
SVM,KER:	rbf	C=	7,0.5769421078673924
SVM,KER:	rbf	C=	8,0.5769421078673924
SVM,KER:	rbf	C=	9,0.5653250773993808
RF,DEPTH:2,0.610678531701891
RF,DEPTH:3,0.610678531701891
RF,DEPTH:4,0.5876160990712074
RF,DEPTH:5,0.53125
RF,DEPTH:6,0.5999999999999999
RF,DEPTH:7,0.5777777777777778
RF,DEPTH:8,0.5535714285714286
RF,DEPTH:9,0.599802371541502
LREG,,0.6416127426580389
