SVM,KER:	linear	C=	1,0.7555555555555555
SVM,KER:	linear	C=	2,0.677737992344734
SVM,KER:	linear	C=	3,0.6321981424148607
SVM,KER:	linear	C=	4,0.6437407224146462
SVM,KER:	linear	C=	5,0.6551724137931034
SVM,KER:	linear	C=	6,0.6214745175655616
SVM,KER:	linear	C=	7,0.6214745175655616
SVM,KER:	linear	C=	8,0.5982142857142857
SVM,KER:	linear	C=	9,0.5982142857142857
