SVM,KER:	linear	C=	1,0.6660069272637308
SVM,KER:	linear	C=	2,0.6999629583899247
SVM,KER:	linear	C=	3,0.6999629583899247
SVM,KER:	linear	C=	4,0.6999629583899247
SVM,KER:	linear	C=	5,0.6999629583899247
SVM,KER:	linear	C=	6,0.6999629583899247
SVM,KER:	linear	C=	7,0.6887351778656127
SVM,KER:	linear	C=	8,0.6996662958843158
SVM,KER:	linear	C=	9,0.7109683794466404
SVM,KER:	poly	C=	1,0.7088103534096566
SVM,KER:	poly	C=	2,0.73
SVM,KER:	poly	C=	3,0.7194163860830528
SVM,KER:	poly	C=	4,0.7194163860830528
SVM,KER:	poly	C=	5,0.7194163860830528
SVM,KER:	poly	C=	6,0.7312095569935292
SVM,KER:	poly	C=	7,0.7312095569935292
SVM,KER:	poly	C=	8,0.7312095569935292
SVM,KER:	poly	C=	9,0.7312095569935292
SVM,KER:	rbf	C=	1,0.6888888888888889
SVM,KER:	rbf	C=	2,0.7428890821016023
SVM,KER:	rbf	C=	3,0.7312095569935292
SVM,KER:	rbf	C=	4,0.7312095569935292
SVM,KER:	rbf	C=	5,0.7312095569935292
SVM,KER:	rbf	C=	6,0.7194163860830528
SVM,KER:	rbf	C=	7,0.7194163860830528
SVM,KER:	rbf	C=	8,0.7088103534096566
SVM,KER:	rbf	C=	9,0.7088103534096566
RF,DEPTH:2,0.653459197615203
RF,DEPTH:3,0.6255201109570041
RF,DEPTH:4,0.6728913397668881
RF,DEPTH:5,0.6110630942091616
RF,DEPTH:6,0.6625000000000001
RF,DEPTH:7,0.6728913397668881
RF,DEPTH:8,0.6520763187429853
RF,DEPTH:9,0.6544891640866873
LREG,,0.6544891640866873
